<?xml version="1.0" encoding="UTF-8" standalone="no"?>
<svg
   xmlns:dc="http://purl.org/dc/elements/1.1/"
   xmlns:cc="http://creativecommons.org/ns#"
   xmlns:rdf="http://www.w3.org/1999/02/22-rdf-syntax-ns#"
   xmlns:svg="http://www.w3.org/2000/svg"
   xmlns="http://www.w3.org/2000/svg"
   xmlns:xlink="http://www.w3.org/1999/xlink"
   xmlns:sodipodi="http://sodipodi.sourceforge.net/DTD/sodipodi-0.dtd"
   xmlns:inkscape="http://www.inkscape.org/namespaces/inkscape"
   version="1.0"
   width="128"
   height="128"
   id="svg2"
   sodipodi:version="0.32"
   inkscape:version="0.92.4 (5da689c313, 2019-01-14)"
   sodipodi:docname="Inkscape_logo_sketch.svg"
   inkscape:output_extension="org.inkscape.output.svg.inkscape"
   inkscape:export-filename="/home/valessio/Desenvolvimento/inkscape/inkscape/inkscape.png"
   inkscape:export-xdpi="45"
   inkscape:export-ydpi="45">
  <sodipodi:namedview
     bordercohor="#666666"
     inkscape:window-height="2030"
     inkscape:window-width="3840"
     inkscape:pageshadow="2"
     inkscape:pageopacity="0.0"
     guidetolerance="10.0"
     gridtolerance="10.0"
     objecttolerance="10.0"
     borderopacity="1.0"
     bordercolor="#666666"
     pagecolor="#ffffff"
     id="base"
     inkscape:zoom="7.9999996"
     inkscape:cx="49.170041"
     inkscape:cy="18.127185"
     inkscape:window-x="0"
     inkscape:window-y="56"
     inkscape:current-layer="svg2"
     inkscape:document-rotation="0"
     showgrid="false"
     inkscape:window-maximized="1"
     inkscape:snap-global="false" />
  <defs
     id="defs4">
    <linearGradient
       id="WhiteTransparent"
       gradientUnits="userSpaceOnUse">
      <stop
         style="stop-color:white;stop-opacity:1"
         offset="0"
         id="stop7" />
      <stop
         style="stop-color:white;stop-opacity:0"
         offset="1"
         id="stop9" />
    </linearGradient>
    <linearGradient
       id="BlackTransparent"
       gradientUnits="userSpaceOnUse">
      <stop
         style="stop-color:black;stop-opacity:1"
         offset="0"
         id="stop12" />
      <stop
         style="stop-color:black;stop-opacity:0"
         offset="1"
         id="stop14" />
    </linearGradient>
    <linearGradient
       id="liquidShade"
       xlink:href="#BlackTransparent"
       x1="0"
       y1="128"
       x2="0"
       y2="64"
       gradientUnits="userSpaceOnUse" />
    <linearGradient
       id="liquidSpecular"
       xlink:href="#WhiteTransparent"
       x1="0"
       y1="128"
       x2="0"
       y2="76"
       gradientUnits="userSpaceOnUse" />
    <linearGradient
       id="sideSpecular"
       xlink:href="#WhiteTransparent"
       x1="80"
       y1="20"
       x2="60"
       y2="40"
       gradientUnits="userSpaceOnUse" />
    <linearGradient
       id="IcecapTip"
       xlink:href="#WhiteTransparent"
       x1="60"
       y1="20"
       x2="90"
       y2="50"
       gradientUnits="userSpaceOnUse"
       gradientTransform="translate(-130)" />
    <linearGradient
       id="shinySpecular"
       xlink:href="#WhiteTransparent"
       x1="33"
       y1="35"
       x2="58"
       y2="60"
       gradientUnits="userSpaceOnUse" />
    <clipPath
       clipPathUnits="userSpaceOnUse"
       id="clipoutline1">
      <path
         id="outline1"
         d="M 54.1,12.5 L 12.9,54.7 C -2.7,70.3 23,69 32.3,74.9 C 36.6,77.7 18.5,81.3 22.2,85 C 25.8,88.7 43.9,92.1 47.5,95.7 C 51.1,99.4 40.2,103.3 43.8,107 C 47.3,110.7 55.7,107.2 57.2,115.6 C 58.3,121.8 72.6,118.7 79,113.4 C 83,110 72.1,110 75.7,106.3 C 84.7,97.2 92.7,102.2 96,93.8 C 97.8,89.3 82.4,86.1 86.5,83.2 C 96.3,76.3 132.3,72.8 115.7,56.2 L 73,12.5 C 67.7,7.5 59,7.5 54.1,12.5 z M 44.2,77.2 C 45.1,77.2 75,81.2 63.5,84.3 C 59.1,85.5 38.9,77.2 44.2,77.2 z M 101.4,93.8 C 101.4,95.9 117.7,97.1 116.8,93.3 C 115.5,86.9 103.2,87.4 101.4,93.8 z M 31.9,104.9 C 35.6,108.1 41.2,104.2 43,99.7 C 39.4,95 26.1,100 31.9,104.9 z M 99.4,98.2 C 94.8,102.4 100.2,106.8 104.7,103.9 C 105.9,103.1 104.6,99.2 99.4,98.2 z " />
    </clipPath>
    <filter
       id="ShadowBlur"
       filterUnits="userSpaceOnUse"
       x="0"
       y="0">
      <feGaussianBlur
         in="SourceAlpha"
         stdDeviation="3"
         result="blur"
         id="feGaussianBlur24" />
    </filter>
  </defs>
  <style
     type="text/css"
     id="style26">
	.specularity {opacity:0.5;}
	.low-specularity {opacity:0.25;}
	.full-specularity {opacity:1;}
	.black {fill:#000000;}
	.white {fill:#ffffff;}
	.outline-big {stroke-width:16;stroke:none;opacity:0.1;fill:none;}
	.outline-small {stroke-width:8;stroke:none;opacity:0.2;fill:none;}
	.stroke-highlight {fill:none;stroke:none;opacity:0.2;}
       	.base-shadow 	{fill:black;opacity:75;}
	</style>
  <!-- Copyright License -->
  <metadata
     id="metadata49">
    <rdf:RDF>
      <cc:Work
         rdf:about="etiquette-icon">
        <dc:format>image/svg+xml</dc:format>
        <dc:type
           rdf:resource="http://purl.org/dc/dcmitype/StillImage" />
        <dc:creator>
          <cc:Agent>
            <dc:title>Andy Fitzsimon</dc:title>
          </cc:Agent>
        </dc:creator>
        <dc:rights>
          <cc:Agent>
            <dc:title>Andrew Michael Fitzsimon</dc:title>
          </cc:Agent>
        </dc:rights>
        <dc:publisher>
          <cc:Agent>
            <dc:title>Fitzsimon IT Consulting Pty Ltd</dc:title>
          </cc:Agent>
        </dc:publisher>
        <dc:identifier>http://andy.fitzsimon.com.au</dc:identifier>
        <dc:date>2006</dc:date>
        <cc:license
           rdf:resource="http://creativecommons.org/licenses/by-sa/2/" />
        <dc:title />
      </cc:Work>
      <cc:License
         rdf:about="http://creativecommons.org/licenses/by-sa/2/">
        <cc:permits
           rdf:resource="http://web.resource.org/cc/Reproduction" />
        <cc:permits
           rdf:resource="http://web.resource.org/cc/Distribution" />
        <cc:requires
           rdf:resource="http://web.resource.org/cc/Notice" />
        <cc:requires
           rdf:resource="http://web.resource.org/cc/Attribution" />
        <cc:permits
           rdf:resource="http://web.resource.org/cc/DerivativeWorks" />
        <cc:requires
           rdf:resource="http://web.resource.org/cc/ShareAlike" />
      </cc:License>
    </rdf:RDF>
  </metadata>
  <path
     id="path2510"
     style="fill:none;stroke:#000000;stroke-width:0.62362206;stroke-linecap:butt;stroke-linejoin:miter;stroke-opacity:1;font-variant-east_asian:normal;opacity:1;vector-effect:none;fill-opacity:1;stroke-miterlimit:4;stroke-dasharray:none;stroke-dashoffset:0"
     d="m 97.333449,100.58618 2.033343,-2.198976 m 0.178055,-0.179603 C 99.385715,98.534 97.845067,101.695 97.064333,103.33204 m 0.06047,0.3962 c 1.004549,-1.12566 3.277097,-3.65041 4.747407,-5.282708 m -0.0348,0.870239 -2.89011,4.937979 m 0.175915,0.1134 3.602885,-4.34616 m 0.22077,0.20529 -1.56853,4.53955 m 0.44269,-0.0434 2.06108,-3.62722 m 0.11694,0.24392 -1.33675,3.22924 m 0.94299,-0.41858 0.2839,-0.35695 0.0599,0.20532 m -73.882454,-2.19631 1.935202,-2.205227 m 2.347769,-1.784185 c -1.593968,2.456652 -3.636287,5.605892 -4.671747,7.208912 m 0.05771,0.19813 c 1.364458,-1.57392 4.402085,-5.06308 6.86137,-7.886573 m 0.424667,0.526526 -5.057721,7.399257 m 0.182403,0.10998 6.151595,-7.404696 m 0.602737,0.06575 -4.476867,8.036114 m 0.369316,-0.10151 5.345678,-7.798067 m 0.255502,0.14808 -3.381688,6.284827 3.88909,-4.59619 -1.59099,3.62392 1.81447,-1.77666 m 63.459414,-12.035043 -2.8434,4.780214 m 0.32854,0.107706 4.99779,-5.695154 m 1.54701,-1.065533 c -1.77531,2.735794 -4.40895,6.796124 -5.41229,8.352314 m 0.16052,-0.02246 c 1.30287,-1.504151 4.5917,-5.28175 7.1744,-8.246872 m 0.14703,0.882954 -4.47735,6.550189 m 0.34027,0.03942 5.27505,-6.349602 m 0.60266,0.218425 -3.5617,6.39335 m 0.47588,-0.03598 4.10501,-5.988238 m 0.32419,0.211088 -2.97342,5.526065 3.88909,-4.596194 -1.59099,3.623922 2.12132,-2.077126 -0.7071,2.077126 M 57.783993,9.7175518 7.5412449,62.588058 M 7.5543988,63.728259 62.854183,8.752814 m 0.396189,0.068004 -6.027658,6.1793389 M 34.491241,38.303647 8.2039187,65.252465 M 8.390586,65.466557 33.820528,40.330449 M 61.365209,13.104035 65.314755,9.2001244 m 0.556808,0.1035449 -3.510261,3.6166317 M 34.507289,41.618374 10.006702,66.861406 m 0.455374,0.261956 26.120714,-25.117175 m 29.781853,-28.637654 3.071685,-2.953676 m 0.414923,0.206213 -2.871791,2.927079 M 39.042213,42.023263 13.034639,68.531549 m 0.628317,0.190753 28.19832,-26.678929 M 69.937194,15.480254 72.764328,12.80545 m 0.144066,0.1479 -2.763695,2.728508 M 43.433575,42.052905 15.770092,69.364182 m 0.577143,0.17475 29.333698,-27.471238 m 7.908309,-7.406198 2.968284,-2.779821 m 15.365771,-14.390166 2.830089,-2.6504 m 0.24381,0.249718 -2.763287,2.71723 m -15.408786,15.151976 -4.480729,4.406049 m -4.794879,4.714962 -28.69933,28.221009 m 0.223199,0.06897 29.837745,-28.279639 m 2.232125,-2.115566 6.010447,-5.696586 m 16.187353,-15.342059 2.810697,-2.663924 m 0.07203,0.07206 -2.732099,2.746444 M 57.39809,35.269824 21.688879,71.166484 m 0.302236,0.09314 35.750769,-34.609301 M 74.656607,20.275661 77.435383,17.58561 m 0.06278,0.06472 -2.72233,2.748398 M 57.929641,37.406234 23.839752,71.822565 m 0.357023,0.109009 34.211559,-32.601092 m 18.058875,-17.208776 2.796306,-2.664673 m 0.158512,0.16053 -2.724386,2.738539 M 58.687661,40.459643 26.635929,72.677874 m 0.318841,0.09799 32.092851,-30.865026 m 18.95368,-18.228539 2.779763,-2.673413 m 0.08791,0.08982 -2.709997,2.743149 M 59.301537,42.929966 28.989677,73.612615 m 0.09833,0.0456 32.113095,-30.693461 M 79.633915,25.346807 82.419108,22.68474 m 0.05641,0.0584 -2.708357,2.73894 M 64.621125,40.799146 31.173024,74.624958 m -5.82652,5.892316 -3.868805,3.912494 m 0.119532,0.361756 5.6328,-5.336016 m 4.633846,-4.389699 39.543911,-37.460415 m 10.499338,-9.946144 2.789312,-2.642348 m 0.23058,0.236492 -2.732962,2.69872 M 72.062138,37.957096 23.280555,86.127519 m 0.137058,0.0942 50.384867,-47.327808 m 4.331606,-4.068792 2.472467,-2.322451 m 3.148246,-2.957227 2.797733,-2.62798 m 0.236388,0.241979 -2.734562,2.689189 m -3.036874,2.986485 -3.049667,2.999067 m -3.483941,3.42613 -48.833211,48.022922 m 0.226897,0.101736 50.085479,-47.33224 m 0,0 1.551408,-1.466125 m 0,0 4.890264,-4.621442 m 2.95323,-2.79089 2.784556,-2.631483 m 0.135171,0.137127 -2.707209,2.710734 m -2.837986,2.841678 -5.390021,5.397038 m 0,0 -0.75634,0.757326 m 0,0 -47.965621,48.028077 m 0.175798,0.06053 56.04248,-52.526643 m 0,0 2.343064,-2.196075 m 0,0 3.158652,-2.960495 m 0.138829,0.140801 -3.218092,3.188213 m 0,0 -2.104508,2.084968 m 0,0 -41.390682,41.006424 m -0.641656,0.635702 -11.658697,11.550459 m 0.09693,0.03445 11.942045,-11.245294 m 0.939511,-0.884695 42.283087,-39.816092 m 0,0 0.355095,-0.334379 m 0,0 4.933941,-4.646071 m 0.05044,0.05239 -45.399855,45.043313 m -1.507871,1.496031 -11.239429,11.15116 m 0.356639,0.124219 11.706363,-10.893228 M 47.831972,77.759537 94.13325,34.674398 m 0.184728,0.188659 -43.767092,43.355858 M 48.22551,80.522446 37.249149,91.39567 m 0.138195,0.0464 11.458871,-10.630878 m 2.612962,-2.42415 44.786858,-41.550647 m 0.240057,0.245978 -41.884832,41.88483 m -2.892579,2.892583 -10.79494,10.794936 m 0.155958,0.05435 11.405193,-10.598761 M 55.649684,79.159999 98.601,39.245641 M 98.950712,39.604838 58.889298,79.82977 M 55.60404,83.128437 44.596334,94.181073 m 0.09654,0.04192 11.806115,-10.803089 M 60.078765,80.144256 101.5143,42.229004 m 0.16021,0.164095 -39.266126,38.408784 M 59.100811,84.037235 47.039592,95.83511 m 0.03119,0.06436 12.989541,-11.676579 m 3.336564,-2.999312 40.580224,-36.478444 m 0.16812,0.174088 -39.198561,36.979774 m -2.555714,2.411053 -14.976709,14.128969 m -0.18201,0.27691 17.760476,-15.379969 m 0.5035,-0.436012 41.037218,-35.536819 m 0.19926,0.203224 -63.730458,58.927805 m 0.06446,0.12498 65.381317,-57.296958 m 0.17191,0.177709 -62.076473,59.194629 m 0.211295,0.0532 63.895508,-57.169665 m 0.0601,0.06207 -60.98006,57.701563 m 0.130596,0.0251 62.703054,-55.830431 m 0.1568,0.158827 -60.150583,56.429924 m 0.121835,0.0399 62.222908,-54.222821 m 0.12649,0.128474 -28.486594,26.824553 m -0.972721,0.915964 -30.286158,28.51913 m 0.07036,0.0899 30.915931,-26.777895 m 6.584227,-5.702944 24.464611,-21.19007 m 0.14831,0.175606 -21.112202,19.714051 m -8.543626,7.977817 -31.118333,29.057515 m 0.03371,0.067 32.513268,-28.220562 M 101.60471,76.798993 119.00407,61.696862 m 0.13052,0.488012 -14.29993,13.434356 M 90.989855,88.626018 59.279177,118.41726 m 0.145894,0.0814 34.094453,-28.255875 m 0.348146,0.221073 -12.13752,11.206042 m -7.087369,6.54346 -11.665282,10.77003 m 0.177989,-0.0114 12.056447,-10.16186 m 9.719469,-8.19212 10.289836,-8.672868 m 0.151148,0.184431 -8.182834,7.746417 m -10.478341,9.91949 -8.839962,8.3685 m 1.271725,-0.35922 9.359551,-6.83968" />
  <path
     style="font-style:normal;font-variant:normal;font-weight:normal;font-stretch:normal;font-size:28.11335373px;line-height:1.25;font-family:Montserrat;-inkscape-font-specification:Montserrat;letter-spacing:0px;word-spacing:0px;fill:#000000;stroke:none;stroke-width:0.70283383"
     d="M -20.701172 134.20703 L -20.701172 155.06641 L -18.705078 155.06641 L -18.705078 150.84961 L -15.21875 147.64453 L -9.2597656 155.06641 L -6.8144531 155.06641 L -13.728516 146.32227 L -7.4042969 140.2793 L -9.8769531 140.2793 L -18.705078 148.34766 L -18.705078 134.20703 L -20.701172 134.20703 z M 137.78906 134.20703 C 137.37674 134.20703 137.03113 134.34582 136.75 134.62695 C 136.46887 134.90809 136.32812 135.23648 136.32812 135.61133 C 136.32812 136.00491 136.46887 136.34191 136.75 136.62305 C 137.03113 136.90418 137.37674 137.04492 137.78906 137.04492 C 138.20139 137.04492 138.54894 136.90418 138.83008 136.62305 C 139.11122 136.34191 139.25195 135.99632 139.25195 135.58398 C 139.25195 135.20914 139.11122 134.88935 138.83008 134.62695 C 138.54894 134.34582 138.20139 134.20703 137.78906 134.20703 z M -47.84375 135.38672 L -47.84375 155.06641 L -45.763672 155.06641 L -45.763672 135.38672 L -47.84375 135.38672 z M 85.695312 135.38672 L 85.695312 155.06641 L 94.746094 155.06641 C 97.182584 155.06641 99.020822 154.61642 100.25781 153.7168 C 101.51354 152.79842 102.14062 151.49539 102.14062 149.80859 C 102.14063 148.49664 101.78447 147.42818 101.07227 146.60352 C 100.37881 145.76012 99.385012 145.1991 98.091797 144.91797 C 99.028909 144.54312 99.760373 143.98016 100.28516 143.23047 C 100.82868 142.46204 101.09961 141.53432 101.09961 140.44727 C 101.09961 138.83544 100.49169 137.58987 99.273438 136.70898 C 98.073935 135.8281 96.378389 135.38672 94.185547 135.38672 L 85.695312 135.38672 z M 87.775391 137.10156 L 94.044922 137.10156 C 95.638012 137.10156 96.86442 137.4108 97.726562 138.0293 C 98.588705 138.62904 99.019531 139.50986 99.019531 140.67188 C 99.019531 141.83389 98.588705 142.72526 97.726562 143.34375 C 96.86442 143.9435 95.638012 144.24219 94.044922 144.24219 L 87.775391 144.24219 L 87.775391 137.10156 z M -32.220703 140.16602 C -33.495175 140.16602 -34.619153 140.41974 -35.59375 140.92578 C -36.549604 141.41308 -37.300225 142.10623 -37.84375 143.00586 L -37.84375 140.2793 L -39.753906 140.2793 L -39.753906 155.06641 L -37.759766 155.06641 L -37.759766 147.30664 C -37.759766 145.63858 -37.299229 144.33554 -36.380859 143.39844 C -35.443747 142.44258 -34.179027 141.96484 -32.585938 141.96484 C -31.161528 141.96484 -30.065306 142.36791 -29.296875 143.17383 C -28.528443 143.97974 -28.144531 145.15063 -28.144531 146.6875 L -28.144531 155.06641 L -26.148438 155.06641 L -26.148438 146.49219 C -26.148438 144.43054 -26.700849 142.86518 -27.806641 141.79688 C -28.89369 140.70982 -30.365222 140.16602 -32.220703 140.16602 z M 0.1015625 140.16602 C -1.7351766 140.16602 -3.1703489 140.56048 -4.2011719 141.34766 C -5.2319949 142.13483 -5.7460938 143.14583 -5.7460938 144.38281 C -5.7460938 145.37615 -5.4943216 146.15453 -4.9882812 146.7168 C -4.4634987 147.27906 -3.8344628 147.68213 -3.1035156 147.92578 C -2.3725685 148.15069 -1.4084875 148.3747 -0.20898438 148.59961 C 0.69064296 148.74954 1.4135065 148.90945 1.9570312 149.07812 C 2.5005561 149.22807 2.948585 149.46263 3.3046875 149.78125 C 3.66079 150.08112 3.8398438 150.50335 3.8398438 151.04688 C 3.8398437 151.81531 3.511447 152.41464 2.8554688 152.8457 C 2.2182327 153.25804 1.224441 153.46289 -0.125 153.46289 C -1.1370808 153.46289 -2.1117164 153.31355 -3.0488281 153.01367 C -3.9859399 152.69506 -4.7623656 152.29199 -5.3808594 151.80469 L -6.28125 153.37891 C -5.6627562 153.90369 -4.8097059 154.34507 -3.7226562 154.70117 C -2.6168644 155.03854 -1.4651281 155.20703 -0.265625 155.20703 C 1.6460831 155.20703 3.1367707 154.83172 4.2050781 154.08203 C 5.2921278 153.3136 5.8359375 152.28345 5.8359375 150.99023 C 5.8359375 150.03438 5.5822122 149.28376 5.0761719 148.74023 C 4.5701315 148.19671 3.9622049 147.8128 3.25 147.58789 C 2.5377951 147.36298 1.5909171 147.13897 0.41015625 146.91406 C -0.5456978 146.74538 -1.2963189 146.58549 -1.8398438 146.43555 C -2.3833686 146.26687 -2.8419521 146.01314 -3.2167969 145.67578 C -3.5728993 145.33842 -3.75 144.88844 -3.75 144.32617 C -3.75 143.59523 -3.4321579 143.00645 -2.7949219 142.55664 C -2.1389436 142.10683 -1.1729096 141.88086 0.1015625 141.88086 C 1.7883637 141.88086 3.240739 142.30308 4.4589844 143.14648 L 5.3300781 141.54297 C 4.7115843 141.13064 3.924604 140.80419 2.96875 140.56055 C 2.0128959 140.29815 1.0574165 140.16602 0.1015625 140.16602 z M 15.626953 140.16602 C 14.165058 140.16602 12.853425 140.48386 11.691406 141.12109 C 10.54813 141.75833 9.6481658 142.6497 8.9921875 143.79297 C 8.3362092 144.93625 8.0078125 146.22872 8.0078125 147.67188 C 8.0078125 149.11502 8.3362092 150.41806 8.9921875 151.58008 C 9.6481658 152.72336 10.54813 153.61277 11.691406 154.25 C 12.853425 154.88724 14.165058 155.20703 15.626953 155.20703 C 16.882682 155.20703 18.017216 154.96386 19.029297 154.47656 C 20.041378 153.97052 20.836959 153.23906 21.417969 152.2832 L 19.927734 151.27148 C 19.440436 152.00243 18.821955 152.54624 18.072266 152.90234 C 17.322576 153.25844 16.507838 153.43555 15.626953 153.43555 C 14.558646 153.43555 13.592612 153.20098 12.730469 152.73242 C 11.887068 152.24512 11.223626 151.57112 10.736328 150.70898 C 10.267772 149.8281 10.033203 148.81515 10.033203 147.67188 C 10.033203 146.54734 10.267772 145.54495 10.736328 144.66406 C 11.223626 143.78318 11.887068 143.10918 12.730469 142.64062 C 13.592612 142.15332 14.558646 141.91016 15.626953 141.91016 C 16.507838 141.91016 17.322576 142.09586 18.072266 142.4707 C 18.821955 142.8268 19.440436 143.37062 19.927734 144.10156 L 21.417969 143.08984 C 20.836959 142.13399 20.041378 141.41308 19.029297 140.92578 C 18.035958 140.41974 16.901425 140.16602 15.626953 140.16602 z M 30.484375 140.16602 C 29.322356 140.16602 28.217533 140.34507 27.167969 140.70117 C 26.118403 141.03854 25.218439 141.52488 24.46875 142.16211 L 25.369141 143.65234 C 25.987635 143.10882 26.727701 142.68659 27.589844 142.38672 C 28.451986 142.0681 29.351951 141.91016 30.289062 141.91016 C 31.657246 141.91016 32.695998 142.24716 33.408203 142.92188 C 34.120408 143.57785 34.476562 144.54193 34.476562 145.81641 L 34.476562 146.7168 L 29.78125 146.7168 C 27.794573 146.7168 26.342197 147.10071 25.423828 147.86914 C 24.524201 148.63757 24.074219 149.65052 24.074219 150.90625 C 24.074219 152.19946 24.562513 153.23822 25.537109 154.02539 C 26.511706 154.81257 27.82334 155.20703 29.472656 155.20703 C 30.672159 155.20703 31.70231 154.99162 32.564453 154.56055 C 33.445338 154.12947 34.110733 153.53015 34.560547 152.76172 L 34.560547 155.06641 L 36.472656 155.06641 L 36.472656 145.90039 C 36.472656 144.00742 35.958558 142.58476 34.927734 141.62891 C 33.896912 140.65431 32.414826 140.16602 30.484375 140.16602 z M 49.513672 140.16602 C 48.276684 140.16602 47.161307 140.42835 46.167969 140.95312 C 45.193373 141.47791 44.406392 142.22853 43.806641 143.20312 L 43.806641 140.2793 L 41.894531 140.2793 L 41.894531 160.51953 L 43.890625 160.51953 L 43.890625 152.2832 C 44.509118 153.23906 45.296098 153.97052 46.251953 154.47656 C 47.226549 154.96386 48.314169 155.20703 49.513672 155.20703 C 50.919339 155.20703 52.175458 154.8978 53.28125 154.2793 C 54.405784 153.64206 55.286592 152.7507 55.923828 151.60742 C 56.561064 150.46414 56.878906 149.15251 56.878906 147.67188 C 56.878906 146.20997 56.561064 144.9089 55.923828 143.76562 C 55.286592 142.62235 54.405784 141.73959 53.28125 141.12109 C 52.156716 140.48386 50.900597 140.16602 49.513672 140.16602 z M 66.683594 140.16602 C 65.315411 140.16602 64.078448 140.48386 62.972656 141.12109 C 61.885606 141.75833 61.023955 142.6497 60.386719 143.79297 C 59.768225 144.93625 59.458984 146.22872 59.458984 147.67188 C 59.458984 149.11502 59.785428 150.40945 60.441406 151.55273 C 61.097384 152.69601 62.007903 153.59402 63.169922 154.25 C 64.350683 154.88724 65.698676 155.20703 67.216797 155.20703 C 68.397558 155.20703 69.476575 155.00022 70.451172 154.58789 C 71.444511 154.17556 72.26785 153.57624 72.923828 152.78906 L 71.798828 151.49609 C 71.236561 152.13333 70.573119 152.61967 69.804688 152.95703 C 69.036255 153.27564 68.191807 153.43555 67.273438 153.43555 C 65.642863 153.43555 64.292917 152.9664 63.224609 152.0293 C 62.156302 151.07344 61.565578 149.82788 61.453125 148.29102 L 73.824219 148.29102 L 73.851562 147.67188 C 73.851562 146.20997 73.542322 144.9175 72.923828 143.79297 C 72.305334 142.6497 71.452284 141.75833 70.365234 141.12109 C 69.278184 140.48386 68.051777 140.16602 66.683594 140.16602 z M 111.64062 140.16602 C 110.47861 140.16602 109.37183 140.34507 108.32227 140.70117 C 107.27271 141.03854 106.37469 141.52488 105.625 142.16211 L 106.52344 143.65234 C 107.14193 143.10882 107.882 142.68659 108.74414 142.38672 C 109.60629 142.0681 110.50625 141.91016 111.44336 141.91016 C 112.81154 141.91016 113.85225 142.24716 114.56445 142.92188 C 115.27666 143.57785 115.63281 144.54193 115.63281 145.81641 L 115.63281 146.7168 L 110.9375 146.7168 C 108.95082 146.7168 107.49844 147.10071 106.58008 147.86914 C 105.68044 148.63757 105.23047 149.65052 105.23047 150.90625 C 105.23047 152.19946 105.71876 153.23822 106.69336 154.02539 C 107.66795 154.81257 108.97959 155.20703 110.62891 155.20703 C 111.82841 155.20703 112.85856 154.99162 113.7207 154.56055 C 114.60159 154.12947 115.26698 153.53015 115.7168 152.76172 L 115.7168 155.06641 L 117.62891 155.06641 L 117.62891 145.90039 C 117.62891 144.00742 117.11285 142.58476 116.08203 141.62891 C 115.0512 140.65431 113.57107 140.16602 111.64062 140.16602 z M 127.37891 140.16602 C 125.54217 140.16602 124.10895 140.56048 123.07812 141.34766 C 122.0473 142.13483 121.53125 143.14583 121.53125 144.38281 C 121.53125 145.37615 121.78498 146.15453 122.29102 146.7168 C 122.8158 147.27906 123.44287 147.68213 124.17383 147.92578 C 124.90477 148.15069 125.87081 148.3747 127.07031 148.59961 C 127.96994 148.74954 128.69085 148.90945 129.23438 149.07812 C 129.7779 149.22807 130.22788 149.46263 130.58398 149.78125 C 130.94008 150.08112 131.11914 150.50335 131.11914 151.04688 C 131.11914 151.81531 130.79074 152.41464 130.13477 152.8457 C 129.49753 153.25804 128.50374 153.46289 127.1543 153.46289 C 126.14222 153.46289 125.16758 153.31355 124.23047 153.01367 C 123.29336 152.69506 122.51498 152.29199 121.89648 151.80469 L 120.99805 153.37891 C 121.61654 153.90369 122.46959 154.34507 123.55664 154.70117 C 124.66243 155.03854 125.81417 155.20703 127.01367 155.20703 C 128.92539 155.20703 130.41607 154.83172 131.48438 154.08203 C 132.57142 153.3136 133.11523 152.28345 133.11523 150.99023 C 133.11523 150.03438 132.86151 149.28376 132.35547 148.74023 C 131.84943 148.19671 131.23955 147.8128 130.52734 147.58789 C 129.81514 147.36298 128.87022 147.13897 127.68945 146.91406 C 126.7336 146.74538 125.98297 146.58549 125.43945 146.43555 C 124.89593 146.26687 124.43735 146.01314 124.0625 145.67578 C 123.7064 145.33842 123.52734 144.88844 123.52734 144.32617 C 123.52734 143.59523 123.84714 143.00645 124.48438 142.55664 C 125.14035 142.10683 126.10443 141.88086 127.37891 141.88086 C 129.06571 141.88086 130.51808 142.30308 131.73633 143.14648 L 132.60938 141.54297 C 131.99088 141.13064 131.20195 140.80419 130.24609 140.56055 C 129.29024 140.29815 128.33476 140.16602 127.37891 140.16602 z M 150.48242 140.16602 C 149.02053 140.16602 147.7089 140.48386 146.54688 141.12109 C 145.4036 141.75833 144.50364 142.6497 143.84766 143.79297 C 143.19168 144.93625 142.86523 146.22872 142.86523 147.67188 C 142.86523 149.11502 143.19168 150.41806 143.84766 151.58008 C 144.50364 152.72336 145.4036 153.61277 146.54688 154.25 C 147.70889 154.88724 149.02053 155.20703 150.48242 155.20703 C 151.73815 155.20703 152.87268 154.96386 153.88477 154.47656 C 154.89685 153.97052 155.69438 153.23906 156.27539 152.2832 L 154.78516 151.27148 C 154.29786 152.00243 153.67938 152.54624 152.92969 152.90234 C 152.18 153.25844 151.36331 153.43555 150.48242 153.43555 C 149.41412 153.43555 148.45004 153.20098 147.58789 152.73242 C 146.74449 152.24512 146.07909 151.57112 145.5918 150.70898 C 145.12324 149.8281 144.88867 148.81515 144.88867 147.67188 C 144.88867 146.54734 145.12324 145.54495 145.5918 144.66406 C 146.07909 143.78318 146.74449 143.10918 147.58789 142.64062 C 148.45004 142.15332 149.41412 141.91016 150.48242 141.91016 C 151.36331 141.91016 152.18 142.09586 152.92969 142.4707 C 153.67938 142.8268 154.29786 143.37062 154.78516 144.10156 L 156.27539 143.08984 C 155.69438 142.13399 154.89685 141.41308 153.88477 140.92578 C 152.89143 140.41974 151.7569 140.16602 150.48242 140.16602 z M 164.49805 140.16602 C 162.66131 140.16602 161.22809 140.56048 160.19727 141.34766 C 159.16645 142.13483 158.65039 143.14583 158.65039 144.38281 C 158.65039 145.37615 158.90412 146.15453 159.41016 146.7168 C 159.93494 147.27906 160.56202 147.68213 161.29297 147.92578 C 162.02392 148.15069 162.98995 148.3747 164.18945 148.59961 C 165.08908 148.74954 165.80999 148.90945 166.35352 149.07812 C 166.89704 149.22807 167.34702 149.46263 167.70312 149.78125 C 168.05922 150.08112 168.23633 150.50335 168.23633 151.04688 C 168.23633 151.81531 167.90989 152.41464 167.25391 152.8457 C 166.61667 153.25804 165.62288 153.46289 164.27344 153.46289 C 163.26136 153.46289 162.28672 153.31355 161.34961 153.01367 C 160.4125 152.69506 159.63412 152.29199 159.01562 151.80469 L 158.11523 153.37891 C 158.73373 153.90369 159.58678 154.34507 160.67383 154.70117 C 161.77962 155.03854 162.93331 155.20703 164.13281 155.20703 C 166.04452 155.20703 167.53325 154.83172 168.60156 154.08203 C 169.68861 153.3136 170.23242 152.28345 170.23242 150.99023 C 170.23242 150.03438 169.98065 149.28376 169.47461 148.74023 C 168.96857 148.19671 168.35869 147.8128 167.64648 147.58789 C 166.93428 147.36298 165.9874 147.13897 164.80664 146.91406 C 163.85079 146.74538 163.10212 146.58549 162.55859 146.43555 C 162.01507 146.26687 161.55453 146.01314 161.17969 145.67578 C 160.82359 145.33842 160.64648 144.88844 160.64648 144.32617 C 160.64648 143.59523 160.96433 143.00645 161.60156 142.55664 C 162.25754 142.10683 163.22357 141.88086 164.49805 141.88086 C 166.18485 141.88086 167.63722 142.30308 168.85547 143.14648 L 169.72656 141.54297 C 169.10807 141.13064 168.32109 140.80419 167.36523 140.56055 C 166.40938 140.29815 165.4539 140.16602 164.49805 140.16602 z M 136.77734 140.2793 L 136.77734 155.06641 L 138.77344 155.06641 L 138.77344 140.2793 L 136.77734 140.2793 z M 66.683594 141.88086 C 68.126746 141.88086 69.325396 142.33945 70.28125 143.25781 C 71.255846 144.15744 71.808257 145.33889 71.939453 146.80078 L 61.453125 146.80078 C 61.58432 145.33889 62.12813 144.15744 63.083984 143.25781 C 64.05858 142.33945 65.259184 141.88086 66.683594 141.88086 z M 49.373047 141.91016 C 50.40387 141.91016 51.340193 142.15332 52.183594 142.64062 C 53.026994 143.12792 53.683788 143.81247 54.152344 144.69336 C 54.639642 145.55551 54.882813 146.54734 54.882812 147.67188 C 54.882812 148.79641 54.639642 149.7988 54.152344 150.67969 C 53.683788 151.56057 53.026994 152.24512 52.183594 152.73242 C 51.340193 153.20098 50.40387 153.43555 49.373047 153.43555 C 48.323482 153.43555 47.376604 153.20098 46.533203 152.73242 C 45.708544 152.24512 45.051751 151.56057 44.564453 150.67969 C 44.095897 149.7988 43.863281 148.79641 43.863281 147.67188 C 43.863281 146.54734 44.095897 145.55551 44.564453 144.69336 C 45.051751 143.81247 45.708544 143.12792 46.533203 142.64062 C 47.376604 142.15332 48.323482 141.91016 49.373047 141.91016 z M 87.775391 145.95703 L 94.71875 145.95703 C 98.279773 145.95703 100.06055 147.18539 100.06055 149.64062 C 100.06055 150.9151 99.610563 151.85142 98.710938 152.45117 C 97.81131 153.05092 96.48052 153.35156 94.71875 153.35156 L 87.775391 153.35156 L 87.775391 145.95703 z M 29.837891 148.20703 L 34.476562 148.20703 L 34.476562 150.625 C 34.082975 151.59959 33.48365 152.34826 32.677734 152.87305 C 31.871818 153.37909 30.905784 153.63281 29.78125 153.63281 C 28.600489 153.63281 27.683322 153.38964 27.027344 152.90234 C 26.371366 152.3963 26.042969 151.71175 26.042969 150.84961 C 26.042969 149.08784 27.307689 148.20703 29.837891 148.20703 z M 110.99414 148.20703 L 115.63281 148.20703 L 115.63281 150.625 C 115.23923 151.59959 114.6399 152.34826 113.83398 152.87305 C 113.02807 153.37909 112.06203 153.63281 110.9375 153.63281 C 109.75673 153.63281 108.83761 153.38964 108.18164 152.90234 C 107.52566 152.3963 107.19922 151.71175 107.19922 150.84961 C 107.19922 149.08784 108.46394 148.20703 110.99414 148.20703 z "
     id="path2347" />
  <g
     id="g1433"
     transform="matrix(0.70283385,0,0,0.70283385,37.915899,68.719456)">
    <path
       id="path2183"
       style="opacity:1;vector-effect:none;fill:none;fill-opacity:1;stroke:#000000;stroke-width:0.99596798;stroke-linecap:butt;stroke-linejoin:miter;stroke-miterlimit:4;stroke-dasharray:none;stroke-dashoffset:0;stroke-opacity:1;paint-order:stroke markers fill"
       d="m -77.276086,156.26428 17.722018,22.28314 m -2.064462,-28.1415 -28.547509,25.90655 m 11.689762,-17.10173 13.988032,17.58814 m -0.148524,-27.39904 -28.547509,25.90655 M 81.222689,147.99362 c -1.793757,0.14072 -3.502918,1.17378 -4.397835,2.74449 -1.248434,2.05803 -0.904571,4.91943 0.785228,6.63161 1.418077,1.49728 3.71266,2.10163 5.674941,1.44626 2.00112,-0.6034 3.5489,-2.44425 3.821145,-4.51327 0.355451,-2.27718 -0.905647,-4.70238 -2.978204,-5.71239 -0.889792,-0.46638 -1.905373,-0.65502 -2.905275,-0.5967 z m 7.452454,18.44127 a 5.5572959,5.5572959 0 0 1 -5.557291,5.5573 5.5572959,5.5572959 0 0 1 -5.557296,-5.5573 5.5572959,5.5572959 0 0 1 5.557296,-5.5573 5.5572959,5.5572959 0 0 1 5.557291,5.5573 v 0 m 96.785247,2.03294 a 3.8779173,3.8779173 0 0 1 -3.87791,3.87792 3.8779173,3.8779173 0 0 1 -3.87792,-3.87792 3.8779173,3.8779173 0 0 1 3.87792,-3.87791 3.8779173,3.8779173 0 0 1 3.87791,3.87791 v 0 m -3.53554,-9.63432 a 3.8779173,3.8779173 0 0 1 -3.8779,3.8779 3.8779173,3.8779173 0 0 1 -3.87793,-3.8779 3.8779173,3.8779173 0 0 1 3.87793,-3.87793 3.8779173,3.8779173 0 0 1 3.8779,3.87793 v 0 m -53.1214,-0.17679 a 3.8779173,3.8779173 0 0 1 -3.8779,3.87792 3.8779173,3.8779173 0 0 1 -3.87793,-3.87792 3.8779173,3.8779173 0 0 1 3.87793,-3.87791 3.8779173,3.8779173 0 0 1 3.8779,3.87791 v 0 m 4.15426,9.81111 a 3.8779173,3.8779173 0 0 1 -3.87792,3.87792 3.8779173,3.8779173 0 0 1 -3.87792,-3.87792 3.8779173,3.8779173 0 0 1 3.87792,-3.87791 3.8779173,3.8779173 0 0 1 3.87792,3.87791 v 0 m -26.78167,-0.17678 a 3.8779173,3.8779173 0 0 1 -3.87792,3.87791 3.8779173,3.8779173 0 0 1 -3.877914,-3.87791 3.8779173,3.8779173 0 0 1 3.877914,-3.87792 3.8779173,3.8779173 0 0 1 3.87792,3.87792 v 0 M -9.6127056,167.76074 a 3.8779173,3.8779173 0 0 1 -3.8779184,3.8779 3.8779173,3.8779173 0 0 1 -3.877918,-3.8779 3.8779173,3.8779173 0 0 1 3.877918,-3.87793 3.8779173,3.8779173 0 0 1 3.8779184,3.87793 v 0 m -38.0069934,0.70709 a 3.8779173,3.8779173 0 0 1 -3.877917,3.87792 3.8779173,3.8779173 0 0 1 -3.877918,-3.87792 3.8779173,3.8779173 0 0 1 3.877918,-3.87791 3.8779173,3.8779173 0 0 1 3.877917,3.87791 v 0 m -3.800697,-9.54594 a 3.8779173,3.8779173 0 0 1 -3.877917,3.87792 3.8779173,3.8779173 0 0 1 -3.877918,-3.87792 3.8779173,3.8779173 0 0 1 3.877918,-3.87791 3.8779173,3.8779173 0 0 1 3.877917,3.87791 v 0 m 28.019108,4.50781 a 8.5625001,8.5625001 0 0 1 -8.562498,8.56251 8.5625001,8.5625001 0 0 1 -8.562501,-8.56251 8.5625001,8.5625001 0 0 1 8.562501,-8.56249 8.5625001,8.5625001 0 0 1 8.562498,8.56249 v 0 m 191.979518,0.35356 a 8.5625001,8.5625001 0 0 1 -8.56251,8.56249 8.5625001,8.5625001 0 0 1 -8.5625,-8.56249 8.5625001,8.5625001 0 0 1 8.5625,-8.56251 8.5625001,8.5625001 0 0 1 8.56251,8.56251 v 0 m -119.059121,0.17677 a 8.5625001,8.5625001 0 0 1 -8.562501,8.56249 8.5625001,8.5625001 0 0 1 -8.562499,-8.56249 8.5625001,8.5625001 0 0 1 8.562499,-8.56251 8.5625001,8.5625001 0 0 1 8.562501,8.56251 v 0 m -24.395185,-0.26517 a 8.5625001,8.5625001 0 0 1 -8.5625,8.56249 8.5625001,8.5625001 0 0 1 -8.5624989,-8.56249 8.5625001,8.5625001 0 0 1 8.5624989,-8.56251 8.5625001,8.5625001 0 0 1 8.5625,8.56251 v 0 m 162.745216,13.91849 c 0.005,-9.1874 0.0104,-18.37479 0.0156,-27.56219 -0.005,9.1874 -0.0104,18.37479 -0.0156,27.56219 z m -16.70643,0.75272 c 0.0166,-9.63813 0.0333,-19.27627 0.0501,-28.9144 -0.0166,9.63813 -0.0333,19.27627 -0.0501,28.9144 z m -2.74003,0 c 0.0166,-9.64176 0.0333,-19.28351 0.0501,-28.92526 -0.0166,9.64175 -0.0333,19.2835 -0.0501,28.92526 z m -19.35523,-0.37517 c 0.004,-9.01765 0.01,-18.03531 0.0142,-27.05296 -0.004,9.01765 -0.01,18.03531 -0.0142,27.05296 z m -5.56898,0.63393 c 0,-13.00463 0,-26.00926 0,-39.01389 0,13.00463 0,26.00926 0,39.01389 z m -3.35971,0 c 0,-13.02306 0,-26.04612 0,-39.06916 0,13.02304 0,26.0461 0,39.06916 z m -5.03821,-0.63393 c 0.007,-9.0671 0.0128,-18.13421 0.0195,-27.20132 -0.007,9.06711 -0.0128,18.13422 -0.0195,27.20132 z m -16.52628,0.75183 c 0.0158,-9.68299 0.0315,-19.366 0.0472,-29.049 -0.0158,9.683 -0.0314,19.36601 -0.0472,29.049 z m -5.12713,0 c 0.0176,-9.66967 0.0352,-19.33933 0.0528,-29.00899 -0.0176,9.66966 -0.0351,19.33932 -0.0528,29.00899 z M 95.945453,177.6111 c -0.0014,-11.24469 -0.0043,-22.48936 -0.0057,-33.73404 0.0014,11.24468 0.0043,22.48935 0.0057,33.73404 z m -4.329572,0 c -0.01138,-11.25597 -0.0222,-22.51193 -0.03329,-33.76791 0.01138,11.25598 0.0222,22.51194 0.03329,33.76791 z m -23.954363,0 c -0.06484,-11.19299 -0.12969,-22.38598 -0.194526,-33.57898 0.06484,11.193 0.12969,22.38599 0.194526,33.57898 z m -16.351215,-1.01292 c -0.04076,-9.13856 -0.08151,-18.27712 -0.122276,-27.41567 0.04076,9.13855 0.08151,18.27711 0.122276,27.41567 z m -20.683566,0 c -0.0528,-9.09377 -0.105601,-18.18752 -0.158399,-27.28129 0.0528,9.09377 0.105601,18.18752 0.158399,27.28129 z m -3.534797,0 c -0.06391,-9.07065 -0.127825,-18.14129 -0.191745,-27.21193 0.06391,9.07064 0.127825,18.14128 0.191745,27.21193 z m -21.6561897,8.93637 c -0.065762,-12.02536 -0.1315389,-24.05072 -0.1973041,-36.07608 0.065762,12.02536 0.1315389,24.05072 0.1973041,36.07608 z m -7.5114862,0.001 c -0.029496,-12.6196 -0.058982,-25.23921 -0.088478,-37.85881 0.029496,12.6196 0.058982,25.23921 0.088478,37.85881 z m -16.8847271,-5.68478 -0.0084,-33.16373 z m -4.868682,0 v -33.20264 z m -18.905051,-1.57335 c -0.0037,-10.0443 -0.0074,-20.08859 -0.01111,-30.13288 0.0037,10.04429 0.0074,20.08858 0.01111,30.13288 z m -2.639983,-0.0363 c -0.0074,-10.03218 -0.01482,-20.06436 -0.02223,-30.09655 0.0074,10.03219 0.01482,20.06437 0.02223,30.09655 z m -16.993147,0.0712 c -0.04169,-10.14903 -0.08337,-20.29805 -0.125053,-30.44706 0.04168,10.14901 0.08337,20.29803 0.125053,30.44706 z m -18.19157,0.24164 c -0.02268,-12.92773 -0.04538,-25.85545 -0.06806,-38.78317 0.02269,12.92772 0.04538,25.85544 0.06806,38.78317 z m -3.1603,2.10467 c -0.02501,-13.31457 -0.05002,-26.62913 -0.07503,-39.94369 0.02501,13.31456 0.05002,26.62912 0.07503,39.94369 z m -7.715722,-0.66016 c -0.01668,-10.18804 -0.03335,-20.37609 -0.05003,-30.56413 0.01667,10.18804 0.03335,20.37609 0.05003,30.56413 z m -3.029032,0.003 c -0.01575,-10.18206 -0.0315,-20.36411 -0.04724,-30.54616 0.01575,10.18205 0.0315,20.3641 0.04724,30.54616 z m -13.13322,-2.13444 c -0.003,-9.61039 -0.006,-19.22077 -0.008,-28.83115 0.003,9.61038 0.006,19.22076 0.008,28.83115 z m -3.15686,0 c 0,-9.56722 0,-19.13443 0,-28.70165 0,9.56722 0,19.13443 0,28.70165 z m -8.20618,1.13526 c 0,-13.5666 0,-27.13321 0,-40.69981 0,13.5666 0,27.13321 0,40.69981 z m -3.53757,0 c 0,-13.54575 0,-27.09151 0,-40.63727 0,13.54576 0,27.09152 0,40.63727 z m -19.26101,-15.21647 h 350.35713 m -350.35713,-10.96016 h 350.35713 m -252.540957,28.92859 h 67.019953 m -164.836126,-7.1429 h 350.35713 m -336.31055,-29.92561 c 93.7822,-0.023 187.5644,-0.046 281.34658,-0.069 -93.78218,0.023 -187.56438,0.0459 -281.34658,0.069 z" />
  </g>
</svg>
